[
  {
    "qInfo": {
      "qId": "cc8068d6-16fe-4362-be5a-60202f730671",
      "qType": "variable"
    },
    "qMetaDef": [],
    "qName": "name",
    "qNumberPresentation": {
      "qType": "U",
      "qnDec": 10,
      "qUseThou": 0
    },
    "qDefinition": "Territories"
  },
  {
    "qInfo": {
      "qId": "1eee9e1f-97d3-413a-b93b-7692adc64e19",
      "qType": "variable"
    },
    "qMetaDef": [],
    "qName": "index",
    "qNumberPresentation": {
      "qType": "U",
      "qnDec": 10,
      "qUseThou": 0
    },
    "qDefinition": "0"
  },
  {
    "qInfo": {
      "qId": "3ee380c8-86b5-4434-ab76-d499b7e377f1",
      "qType": "variable"
    },
    "qMetaDef": [],
    "qName": "currentName",
    "qNumberPresentation": {
      "qType": "U",
      "qnDec": 10,
      "qUseThou": 0
    },
    "qDefinition": "Territories"
  },
  {
    "qInfo": {
      "qId": "ee61043c-d032-44dc-86c3-de971e958f9d",
      "qType": "variable"
    },
    "qMetaDef": [],
    "qName": "matches",
    "qNumberPresentation": {
      "qType": "U",
      "qnDec": 10,
      "qUseThou": 0
    },
    "qDefinition": "0"
  }
]